{
  "_fv": 33,
  "_type": "itemextension",
  "definition": {
    "item": {
      "value": "CUSTOM:Chir.bucket"
    },
    "enableFuel": true,
    "fuelPower": {
      "fixedValue": 1600.0
    },
    "hasDispenseBehavior": false,
    "compostLayerChance": 0.0
  }
}