{
  "_fv": 33,
  "_type": "achievement",
  "definition": {
    "achievementName": "Subnormal",
    "achievementDescription": "Por que mierdate haces una azada de Pardo cuando hay mejores cosas que hacer?",
    "achievementIcon": {
      "value": "CUSTOM:PardoHoe"
    },
    "background": "Default",
    "disableDisplay": false,
    "showPopup": true,
    "announceToChat": true,
    "hideIfNotCompleted": true,
    "rewardLoot": [],
    "rewardRecipes": [],
    "rewardFunction": "No function",
    "rewardXP": 0,
    "achievementType": "challenge",
    "parent": {
      "value": "CUSTOM:Adv"
    },
    "triggerxml": "<xml xmlns=\"https://developers.google.com/blockly/xml\"><block type=\"custom_trigger\" x=\"58\" y=\"48\"><next><block type=\"advancement_trigger\" deletable=\"false\"></block></next></block></xml>"
  }
}