{
  "_fv": 33,
  "_type": "gui",
  "definition": {
    "type": 0,
    "width": 176,
    "height": 166,
    "inventoryOffsetX": 0,
    "inventoryOffsetY": 0,
    "renderBgLayer": true,
    "doesPauseGame": false,
    "components": [
      {
        "type": "label",
        "data": {
          "text": "Sigue a Mpardo En twitch",
          "color": {
            "value": -12829636,
            "falpha": 0.0
          },
          "name": "Sigue a Mpardo En twitch",
          "x": 151,
          "y": 50
        }
      },
      {
        "type": "button",
        "data": {
          "text": "Seguir",
          "onClick": {
            "name": "Seguir"
          },
          "width": 56,
          "height": 20,
          "name": "Seguir",
          "x": 179,
          "y": 111
        }
      }
    ],
    "gridSettings": {
      "sx": 18,
      "sy": 18,
      "ox": 11,
      "oy": 15,
      "snapOnGrid": false
    }
  }
}