{
  "_fv": 33,
  "_type": "command",
  "definition": {
    "commandName": "mpardo",
    "permissionLevel": "4",
    "argsxml": "<xml xmlns=\"https://developers.google.com/blockly/xml\"><block type=\"args_start\" deletable=\"false\" x=\"40\" y=\"40\"><next><block type=\"call_procedure\"><field name=\"procedure\">Seguir</field></block></next></block></xml>"
  }
}