{
  "_fv": 33,
  "_type": "recipe",
  "definition": {
    "recipeType": "Crafting",
    "xpReward": 0.0,
    "cookingTime": 200,
    "recipeRetstackSize": 1,
    "group": "",
    "recipeShapeless": false,
    "recipeSlots": [
      {
        "value": "CUSTOM:Nauet"
      },
      {
        "value": "CUSTOM:Twitch"
      },
      {
        "value": "CUSTOM:Lydia"
      },
      {
        "value": "CUSTOM:Twitch"
      },
      {
        "value": "CUSTOM:Cum.bucket"
      },
      {
        "value": "CUSTOM:Twitch"
      },
      {
        "value": "CUSTOM:Nacho"
      },
      {
        "value": "CUSTOM:Twitch"
      },
      {
        "value": "CUSTOM:Yo"
      }
    ],
    "recipeReturnStack": {
      "value": "CUSTOM:MPARDO"
    },
    "name": "mpre",
    "namespace": "mod"
  }
}