{
  "_fv": 33,
  "_type": "procedure",
  "definition": {
    "procedurexml": "<xml xmlns=\"https://developers.google.com/blockly/xml\"><block type=\"event_trigger\" deletable=\"false\" x=\"40\" y=\"40\"><field name=\"trigger\">no_ext_trigger</field><next><block type=\"entity_add_xp_level\"><value name=\"xpamount\"><block type=\"math_number\"><field name=\"NUM\">5</field></block></value><value name=\"entity\"><block type=\"entity_from_deps\"></block></value><next><block type=\"entity_add_potion\"><field name=\"potion\">GLOWING</field><value name=\"level\"><block type=\"math_number\"><field name=\"NUM\">1</field></block></value><value name=\"duration\"><block type=\"math_number\"><field name=\"NUM\">5</field></block></value><value name=\"entity\"><block type=\"entity_from_deps\"></block></value><next><block type=\"entity_add_potion\"><field name=\"potion\">SPEED</field><value name=\"level\"><block type=\"math_number\"><field name=\"NUM\">10</field></block></value><value name=\"duration\"><block type=\"math_number\"><field name=\"NUM\">5</field></block></value><value name=\"entity\"><block type=\"entity_from_deps\"></block></value><next><block type=\"entity_add_potion\"><field name=\"potion\">HASTE</field><value name=\"level\"><block type=\"math_number\"><field name=\"NUM\">10</field></block></value><value name=\"duration\"><block type=\"math_number\"><field name=\"NUM\">5</field></block></value><value name=\"entity\"><block type=\"entity_from_deps\"></block></value></block></next></block></next></block></next></block></next></block></xml>"
  }
}