{
  "_fv": 33,
  "_type": "tag",
  "definition": {
    "type": "Items",
    "items": [
      {
        "value": "CUSTOM:PardoaLog"
      },
      {
        "value": "CUSTOM:PardoaPlanks"
      }
    ],
    "blocks": [],
    "functions": [],
    "entities": [],
    "name": "pardoa_log",
    "namespace": "forge"
  }
}