{
  "ultrawarm": false,
  "natural": true,
  "piglin_safe": false,
  "respawn_anchor_works": true,
  "bed_works": false,
  "has_raids": true,
  "has_skylight": true,
  "has_ceiling": false,
  "coordinate_scale": 1,
  "ambient_light": 0,
  "logical_height": 256,
  "infiniburn": "minecraft:infiniburn_overworld",
  "min_y": 0,
  "height": 256,
  "effects": "mpardomod:pardo"
}