{
  "type": "minecraft:crafting_shaped",
  "pattern": [
    "012",
    "345",
    "678"
  ],
  "key": {
    "0": {
      "item": "mpardomod:lingpardo"
    },
    "1": {
      "item": "mpardomod:lingpardo"
    },
    "2": {
      "item": "mpardomod:lingpardo"
    },
    "3": {
      "item": "mpardomod:lingpardo"
    },
    "4": {
      "item": "mpardomod:pardo_armor_boots"
    },
    "5": {
      "item": "mpardomod:lingpardo"
    },
    "6": {
      "item": "mpardomod:lingpardo"
    },
    "7": {
      "item": "mpardomod:lingpardo"
    },
    "8": {
      "item": "mpardomod:lingpardo"
    }
  },
  "result": {
    "item": "mpardomod:armaduradepardoreforzada_armor_boots",
    "count": 1
  }
}