{
  "type": "minecraft:crafting_shapeless",
  "ingredients": [
    {
      "item": "minecraft:crying_obsidian"
    },
    {
      "item": "mpardomod:manzanadepardonormal"
    }
  ],
  "result": {
    "item": "mpardomod:manzanadepardocorrupta",
    "count": 2
  }
}