{
  "type": "minecraft:crafting_shaped",
  "pattern": [
    "012",
    " 45",
    "6 8"
  ],
  "key": {
    "0": {
      "item": "mpardomod:diamantetriturado"
    },
    "1": {
      "item": "mpardomod:diamantetriturado"
    },
    "2": {
      "item": "mpardomod:corazondediamante"
    },
    "4": {
      "item": "mpardomod:duam"
    },
    "5": {
      "item": "mpardomod:diamantetriturado"
    },
    "6": {
      "item": "mpardomod:duam"
    },
    "8": {
      "item": "mpardomod:diamantetriturado"
    }
  },
  "result": {
    "item": "mpardomod:picoconpardoydiamante",
    "count": 1
  }
}