{
  "type": "minecraft:crafting_shapeless",
  "ingredients": [
    {
      "item": "minecraft:wheat_seeds"
    },
    {
      "item": "minecraft:wheat_seeds"
    },
    {
      "item": "minecraft:chicken"
    },
    {
      "item": "minecraft:mutton"
    },
    {
      "item": "minecraft:wheat_seeds"
    },
    {
      "item": "minecraft:wheat_seeds"
    }
  ],
  "result": {
    "item": "mpardomod:pasradekebab",
    "count": 3
  }
}