{
  "type": "minecraft:crafting_shaped",
  "pattern": [
    "012",
    "345",
    "678"
  ],
  "key": {
    "0": {
      "item": "minecraft:black_concrete"
    },
    "1": {
      "item": "minecraft:white_concrete"
    },
    "2": {
      "item": "minecraft:black_concrete"
    },
    "3": {
      "item": "minecraft:white_concrete"
    },
    "4": {
      "item": "mpardomod:cum_bucket"
    },
    "5": {
      "item": "minecraft:white_concrete"
    },
    "6": {
      "item": "minecraft:black_concrete_powder"
    },
    "7": {
      "item": "minecraft:white_concrete"
    },
    "8": {
      "item": "minecraft:black_concrete"
    }
  },
  "result": {
    "item": "mpardomod:reno",
    "count": 1
  }
}